{
    "componentChunkName": "component---node-modules-gatsby-theme-buzzing-src-gatsby-theme-timeline-templates-posts-query-js",
    "path": "/page/5",
    "result": {"data":{"site":{"siteMetadata":{"title":"100年前的今天","author":"Buzzing.cc","description":"用中文浏览100年前的今天小组热门内容","keywords":["buzzing","100年前的今天","100年前"],"siteUrl":"https://news.buzzing.cc","telegram":"@buzzingcc","iconUrl":"https://100.buzzing.cc/avatar.png","defaultSocialImageUrl":null,"social":[{"name":"/r/100yearsago","url":"https://www.reddit.com/r/100yearsago/","external":true},{"name":"Buzzing","url":"https://www.buzzing.cc/","external":true}],"menuLinks":[],"disqus":null,"utterances":null,"localize":[{"title":"Buzzing on 100 years ago","description":"See what's buzzing on /r/100yearsago in your native language","keywords":["buzzing","100 years ago"],"locale":"en","social":{"name":null,"url":null,"external":null},"menuLinks":[{"name":"Weekly Selection","url":"/issues","external":null}]},{"title":"100年前的今天","description":"用中文瀏覽100年前的今天小組熱門內容","keywords":["buzzing","100年前的今天","100年前"],"locale":"zh-Hant","social":null,"menuLinks":[]},{"title":"100年前の今日","description":"人気の100年前の今日を日本語で閲覧","keywords":["buzzing","100年前の今日","100年前"],"locale":"ja","social":null,"menuLinks":[]}]}},"tagsGroup":{"group":[{"fieldValue":"100yearsago","totalCount":206},{"fieldValue":"reddit","totalCount":206}]},"allBlogPost":{"nodes":[{"id":"RedditPost-q04ac1","excerpt":"","slug":"/reddit/r/100yearsago/comments/q04ac1/oct_2_1921_babe_ruth_hits_his_59th_and_last_home/","title":"[Oct. 2, 1921] Babe Ruth hits his 59th and last home run of the season to set the new record, as the Yankees win their final regular-season game over his old team the Red Sox. The old record was 54, set by Ruth in 1920.","date":"October 03, 2021","dateISO":"2021-10-03T06:14:18.000Z","datetime":"2021-10-03 06:14","tags":["100yearsago","reddit"],"image":null,"imageAlt":null,"__typename":"SocialMediaPost","provider":"Reddit","thirdPartyId":"q04ac1","url":"https://www.reddit.com/r/100yearsago/comments/q04ac1/oct_2_1921_babe_ruth_hits_his_59th_and_last_home/","originalUrl":"https://www.reddit.com/r/100yearsago/comments/q04ac1/oct_2_1921_babe_ruth_hits_his_59th_and_last_home/","imageRemote":null,"video":null,"channel":"100yearsago","channelUrl":"https://www.reddit.com/r/100yearsago","author":"knotso6","authorUrl":"https://www.reddit.com/user/knotso6","authorImageRemote":null,"authorImage":null,"authorSlug":"knotso6","score":42,"views":null,"sharedCount":null,"likeCount":null,"sharedContent":null,"parent":{"localize":[{"title":"[1921年10月2日】 ベーブ・ルースがシーズン59本目となる最後の本塁打を放ち、新記録を樹立しました。ヤンキースは彼の古巣であるレッドソックスとのレギュラーシーズン最終戦に勝利しました。従来の記録は1920年にルースが記録した54本でした。","the_new_excerpt":null,"locale":"ja"},{"title":"[1921年10月2日] 贝比-鲁斯击出了他本赛季的第59支也是最后一支本垒打，创造了新的记录，洋基队在最后一场常规赛中战胜了他的老东家红袜队。旧的记录是54支，由鲁斯在1920年创造。","the_new_excerpt":null,"locale":"zh"},{"title":"[1921年10月2日] 貝比-魯斯擊出了他本賽季的第59支也是最後一支本壘打，創造了新的記錄，洋基隊在最後一場常規賽中戰勝了他的老東家紅襪隊。舊的記錄是54支，由魯斯在1920年創造。","the_new_excerpt":null,"locale":"zh-Hant"}]}},{"id":"RedditPost-pzt163","excerpt":"","slug":"/reddit/r/100yearsago/comments/pzt163/october_2nd_1921_are_modern_women_less_bashful/","title":"[October 2nd, 1921] \"Are Modern Women Less Bashful Than Men?\"","date":"October 02, 2021","dateISO":"2021-10-02T13:40:16.000Z","datetime":"2021-10-02 13:40","tags":["100yearsago","reddit"],"image":null,"imageAlt":"Reddit Image","__typename":"SocialMediaPost","provider":"Reddit","thirdPartyId":"pzt163","url":"https://www.reddit.com/r/100yearsago/comments/pzt163/october_2nd_1921_are_modern_women_less_bashful/","originalUrl":"https://www.reddit.com/r/100yearsago/comments/pzt163/october_2nd_1921_are_modern_women_less_bashful/","imageRemote":"https://i.redd.it/cadhzxsyp0r71.jpg?width=1080&crop=smart&auto=webp&s=8eb154eac36f95cae577a36aa3be345f2029e648","video":null,"channel":"100yearsago","channelUrl":"https://www.reddit.com/r/100yearsago","author":"michaelnoir","authorUrl":"https://www.reddit.com/user/michaelnoir","authorImageRemote":null,"authorImage":null,"authorSlug":"michaelnoir","score":55,"views":null,"sharedCount":null,"likeCount":null,"sharedContent":null,"parent":{"localize":[{"title":"[1921年10月2日] \"現代の女性は男性よりも恥ずかしがり屋？\"","the_new_excerpt":null,"locale":"ja"},{"title":"[1921年10月2日]\"现代女性是否比男性更不腼腆？\"","the_new_excerpt":null,"locale":"zh"},{"title":"[1921年10月2日]\"現代女性是否比男性更不靦腆？\"","the_new_excerpt":null,"locale":"zh-Hant"}]}},{"id":"RedditPost-pznn5a","excerpt":"","slug":"/reddit/r/100yearsago/comments/pznn5a/oct_1_1921_stubby_war_hero_dog_of_the_armys_102nd/","title":"[Oct. 1, 1921] Stubby, war hero dog of the Army's 102nd Regiment, makes his debut as mascot of Georgetown University's football team. The mutt owned by James Conroy, a Georgetown Law student, remains the symbol of Hoyas sports teams.","date":"October 02, 2021","dateISO":"2021-10-02T07:53:47.000Z","datetime":"2021-10-02 07:53","tags":["100yearsago","reddit"],"image":null,"imageAlt":null,"__typename":"SocialMediaPost","provider":"Reddit","thirdPartyId":"pznn5a","url":"https://www.reddit.com/r/100yearsago/comments/pznn5a/oct_1_1921_stubby_war_hero_dog_of_the_armys_102nd/","originalUrl":"https://www.reddit.com/r/100yearsago/comments/pznn5a/oct_1_1921_stubby_war_hero_dog_of_the_armys_102nd/","imageRemote":null,"video":null,"channel":"100yearsago","channelUrl":"https://www.reddit.com/r/100yearsago","author":"knotso6","authorUrl":"https://www.reddit.com/user/knotso6","authorImageRemote":null,"authorImage":null,"authorSlug":"knotso6","score":42,"views":null,"sharedCount":null,"likeCount":null,"sharedContent":null,"parent":{"localize":[{"title":"[1921年10月1日】陸軍第102連隊の戦争英雄犬スタビーが、ジョージタウン大学のフットボールチームのマスコットとしてデビューしました。ジョージタウン大学法学部の学生、ジェームズ・コンロイが飼っていたこの雑種犬は、現在でもホイヤーズのスポーツチームのシンボルとなっている。","the_new_excerpt":null,"locale":"ja"},{"title":"[1921年10月1日] 陆军第102团的战争英雄犬斯塔比作为乔治敦大学足球队的吉祥物首次亮相。这只由乔治敦法学院学生詹姆斯-康罗伊（James Conroy）拥有的杂种狗仍然是霍耶斯大学运动队的象征。","the_new_excerpt":null,"locale":"zh"},{"title":"[1921年10月1日] 陸軍第102團的戰爭英雄犬斯塔比作爲喬治敦大學足球隊的吉祥物首次亮相。這隻由喬治敦法學院學生詹姆斯-康羅伊（James Conroy）擁有的雜種狗仍然是霍耶斯大學運動隊的象徵。","the_new_excerpt":null,"locale":"zh-Hant"}]}},{"id":"RedditPost-pz5s3e","excerpt":"","slug":"/reddit/r/100yearsago/comments/pz5s3e/october_1_1921_president_harding_marine/","title":"[October 1, 1921] President Harding, Marine Headquarters, 1 October 1921","date":"October 01, 2021","dateISO":"2021-10-01T14:18:47.000Z","datetime":"2021-10-01 14:18","tags":["100yearsago","reddit"],"image":null,"imageAlt":"Reddit Image","__typename":"SocialMediaPost","provider":"Reddit","thirdPartyId":"pz5s3e","url":"https://www.reddit.com/r/100yearsago/comments/pz5s3e/october_1_1921_president_harding_marine/","originalUrl":"https://www.reddit.com/r/100yearsago/comments/pz5s3e/october_1_1921_president_harding_marine/","imageRemote":"https://external-preview.redd.it/-rPa5Uqju8N3oSC1C_36v-2m1Jd5CNl9i8OKLJUEvkQ.jpg?width=960&crop=smart&auto=webp&s=99f98b4fe71b47693c090ea5bbb4ee45e25a1377","video":null,"channel":"100yearsago","channelUrl":"https://www.reddit.com/r/100yearsago","author":"DyersvilleStLambert","authorUrl":"https://www.reddit.com/user/DyersvilleStLambert","authorImageRemote":null,"authorImage":null,"authorSlug":"DyersvilleStLambert","score":41,"views":null,"sharedCount":null,"likeCount":null,"sharedContent":null,"parent":{"localize":[{"title":"[1921年10月1日】ハーディング大統領、海兵隊本部、1921年10月1日","the_new_excerpt":null,"locale":"ja"},{"title":"[1921年10月1日]哈定总统，海军陆战队总部，1921年10月1日","the_new_excerpt":null,"locale":"zh"},{"title":"[1921年10月1日]哈定總統，海軍陸戰隊總部，1921年10月1日","the_new_excerpt":null,"locale":"zh-Hant"}]}},{"id":"RedditPost-pz5ogw","excerpt":"","slug":"/reddit/r/100yearsago/comments/pz5ogw/october_1_1921_photograph_shows_six_young_men_and/","title":"[October 1, 1921] Photograph shows six young men and women wearing radio headsets, seated around a table, participating in a \"jamming\" contest which requires the transmission of messages with the least number of errors. 10/1/21","date":"October 01, 2021","dateISO":"2021-10-01T13:30:28.000Z","datetime":"2021-10-01 13:30","tags":["100yearsago","reddit"],"image":null,"imageAlt":"Reddit Image","__typename":"SocialMediaPost","provider":"Reddit","thirdPartyId":"pz5ogw","url":"https://www.reddit.com/r/100yearsago/comments/pz5ogw/october_1_1921_photograph_shows_six_young_men_and/","originalUrl":"https://www.reddit.com/r/100yearsago/comments/pz5ogw/october_1_1921_photograph_shows_six_young_men_and/","imageRemote":"https://external-preview.redd.it/Ym53nuazOVN_upeFPG5GdeXqBOwGD7ETErgzm2Ws0Ss.jpg?width=960&crop=smart&auto=webp&s=63dea599ceacdf9f5b5a3cc795cac0ff2a3672cd","video":null,"channel":"100yearsago","channelUrl":"https://www.reddit.com/r/100yearsago","author":"DyersvilleStLambert","authorUrl":"https://www.reddit.com/user/DyersvilleStLambert","authorImageRemote":null,"authorImage":null,"authorSlug":"DyersvilleStLambert","score":45,"views":null,"sharedCount":null,"likeCount":null,"sharedContent":null,"parent":{"localize":[{"title":"[1921年10月1日】無線機のヘッドセットをつけた若い男女6人がテーブルを囲み、誤りの少ないメッセージの送信を競う「ジャミング」に参加している様子を撮影。10/1/21","the_new_excerpt":null,"locale":"ja"},{"title":"[1921年10月1日]照片显示，六名戴着无线电耳机的青年男女围坐在一张桌子旁，参加 \"干扰 \"比赛，要求以最少的错误传输信息。10/1/21","the_new_excerpt":null,"locale":"zh"},{"title":"[1921年10月1日]照片顯示，六名戴着無線電耳機的青年男女圍坐在一張桌子旁，參加 \"干擾 \"比賽，要求以最少的錯誤傳輸信息。10/1/21","the_new_excerpt":null,"locale":"zh-Hant"}]}},{"id":"RedditPost-pyhvwm","excerpt":"","slug":"/reddit/r/100yearsago/comments/pyhvwm/september_30_1921_uss_colorado_bb_45_overhead/","title":"[September 30, 1921] USS Colorado (BB 45), overhead view showing stern, at New York Shipbuilding Corporation, Camden, New Jersey, September 30, 1921. [2250 x 2986]","date":"October 01, 2021","dateISO":"2021-10-01T02:46:07.000Z","datetime":"2021-10-01 02:46","tags":["100yearsago","reddit"],"image":null,"imageAlt":"Reddit Image","__typename":"SocialMediaPost","provider":"Reddit","thirdPartyId":"pyhvwm","url":"https://www.reddit.com/r/100yearsago/comments/pyhvwm/september_30_1921_uss_colorado_bb_45_overhead/","originalUrl":"https://www.reddit.com/r/100yearsago/comments/pyhvwm/september_30_1921_uss_colorado_bb_45_overhead/","imageRemote":"https://external-preview.redd.it/i3Zo0oUbNO8Xf2AszrRNwzFdxX2rwiIVKFDb9fHcosM.jpg?width=1080&crop=smart&auto=webp&s=30e11c93733f2bf35f2e02e57c8a2ed65babc7ab","video":null,"channel":"100yearsago","channelUrl":"https://www.reddit.com/r/100yearsago","author":"DyersvilleStLambert","authorUrl":"https://www.reddit.com/user/DyersvilleStLambert","authorImageRemote":null,"authorImage":null,"authorSlug":"DyersvilleStLambert","score":41,"views":null,"sharedCount":null,"likeCount":null,"sharedContent":null,"parent":{"localize":[{"title":"[1921年9月30日] USSコロラド(BB45)、船尾を示す俯瞰図、ニュージャージー州カムデンのニューヨーク造船株式会社にて、1921年9月30日。[2250 x 2986]","the_new_excerpt":null,"locale":"ja"},{"title":"[1921年9月30日]科罗拉多号（BB45），显示船尾的俯视图，1921年9月30日在新泽西州卡姆登的纽约造船公司。[2250 x 2986]","the_new_excerpt":null,"locale":"zh"},{"title":"[1921年9月30日]科羅拉多號（BB45），顯示船尾的俯視圖，1921年9月30日在新澤西州卡姆登的紐約造船公司。[2250 x 2986]","the_new_excerpt":null,"locale":"zh-Hant"}]}}]}},"pageContext":{"basePath":"/","pageType":"home","tagsFilter":{"date":{"gt":"2000-12-25T10:54:58.000Z"}},"filter":{"date":{"gt":"2000-12-25T10:54:58.000Z"}},"limit":50,"skip":200,"totalPages":5,"total":206,"currentPage":5,"maxWidth":1024,"maxHeight":512,"siteMetadata":null,"locale":"zh","hrefLang":"zh-Hans","originalPath":"/page/5","dateFormat":"YYYY-MM-DD"}},
    "staticQueryHashes": ["1239077767","2744905544","3025052997","3280999885"]}