{
    "componentChunkName": "component---node-modules-gatsby-theme-buzzing-src-gatsby-theme-timeline-templates-posts-query-js",
    "path": "/zh-Hant/page/5",
    "result": {"data":{"site":{"siteMetadata":{"title":"100年前的今天","author":"Buzzing.cc","description":"用中文浏览100年前的今天小组热门内容","keywords":["buzzing","100年前的今天","100年前"],"siteUrl":"https://news.buzzing.cc","telegram":"@buzzingcc","iconUrl":"https://100.buzzing.cc/avatar.png","defaultSocialImageUrl":null,"social":[{"name":"/r/100yearsago","url":"https://www.reddit.com/r/100yearsago/","external":true},{"name":"Buzzing","url":"https://www.buzzing.cc/","external":true}],"menuLinks":[],"disqus":null,"utterances":null,"localize":[{"title":"Buzzing on 100 years ago","description":"See what's buzzing on /r/100yearsago in your native language","keywords":["buzzing","100 years ago"],"locale":"en","social":{"name":null,"url":null,"external":null},"menuLinks":[{"name":"Weekly Selection","url":"/issues","external":null}]},{"title":"100年前的今天","description":"用中文瀏覽100年前的今天小組熱門內容","keywords":["buzzing","100年前的今天","100年前"],"locale":"zh-Hant","social":null,"menuLinks":[]},{"title":"100年前の今日","description":"人気の100年前の今日を日本語で閲覧","keywords":["buzzing","100年前の今日","100年前"],"locale":"ja","social":null,"menuLinks":[]}]}},"tagsGroup":{"group":[{"fieldValue":"100yearsago","totalCount":211},{"fieldValue":"reddit","totalCount":211}]},"allBlogPost":{"nodes":[{"id":"RedditPost-q1y65t","excerpt":"","slug":"/reddit/r/100yearsago/comments/q1y65t/october_5th_1921_the_outbursts_of_everett_true_by/","title":"[October 5th, 1921] \"The Outbursts of Everett True\" by A.D. Condo","date":"October 05, 2021","dateISO":"2021-10-05T18:47:29.000Z","datetime":"2021-10-05 18:47","tags":["100yearsago","reddit"],"image":null,"imageAlt":"Reddit Image","__typename":"SocialMediaPost","provider":"Reddit","thirdPartyId":"q1y65t","url":"https://www.reddit.com/r/100yearsago/comments/q1y65t/october_5th_1921_the_outbursts_of_everett_true_by/","originalUrl":"https://www.reddit.com/r/100yearsago/comments/q1y65t/october_5th_1921_the_outbursts_of_everett_true_by/","imageRemote":"https://i.redd.it/spn8kv1o9nr71.jpg?width=320&crop=smart&auto=webp&s=5e84299e07066d25906bd93f370511aa84739202","video":null,"channel":"100yearsago","channelUrl":"https://www.reddit.com/r/100yearsago","author":"Missy_Elliott_Smith","authorUrl":"https://www.reddit.com/user/Missy_Elliott_Smith","authorImageRemote":null,"authorImage":null,"authorSlug":"Missy_Elliott_Smith","score":65,"views":null,"sharedCount":null,"likeCount":null,"sharedContent":null,"parent":{"localize":[{"title":"[1921年10月5日】A.D.コンドの「エベレット・トゥルーの暴走」。","the_new_excerpt":null,"locale":"ja"},{"title":"[1921年10月5日]\"埃弗里特-特朗普的爆发\"，作者：A.D.康多","the_new_excerpt":null,"locale":"zh"},{"title":"[1921年10月5日]\"埃弗裏特-特朗普的爆發\"，作者：A.D.康多","the_new_excerpt":null,"locale":"zh-Hant"}]}},{"id":"RedditPost-q1u0aw","excerpt":"","slug":"/reddit/r/100yearsago/comments/q1u0aw/october_5th_1921_english_comic_actor_charlie/","title":"[October 5th, 1921] English comic actor Charlie Chaplin (in coat and goggles) prepares to board an Instone Airline Vickers Vimy Commercial airliner from Croydon, London, to Paris, en route for the USA.","date":"October 05, 2021","dateISO":"2021-10-05T14:47:37.000Z","datetime":"2021-10-05 14:47","tags":["100yearsago","reddit"],"image":null,"imageAlt":"Reddit Image","__typename":"SocialMediaPost","provider":"Reddit","thirdPartyId":"q1u0aw","url":"https://www.reddit.com/r/100yearsago/comments/q1u0aw/october_5th_1921_english_comic_actor_charlie/","originalUrl":"https://www.reddit.com/r/100yearsago/comments/q1u0aw/october_5th_1921_english_comic_actor_charlie/","imageRemote":"https://i.redd.it/m440b3nx4mr71.jpg?width=1080&crop=smart&auto=webp&s=870ecb4bb63777a761911f0e2178a02ec29b7590","video":null,"channel":"100yearsago","channelUrl":"https://www.reddit.com/r/100yearsago","author":"michaelnoir","authorUrl":"https://www.reddit.com/user/michaelnoir","authorImageRemote":null,"authorImage":null,"authorSlug":"michaelnoir","score":46,"views":null,"sharedCount":null,"likeCount":null,"sharedContent":null,"parent":{"localize":[{"title":"[1921年10月5日】ロンドン・クロイドン発パリ行きのインストン・エアライン・ビッカース・バイミー商用旅客機に搭乗するイギリスの喜劇俳優チャップリン（コートとゴーグル姿）。","the_new_excerpt":null,"locale":"ja"},{"title":"[1921年10月5日]英国喜剧演员查理-卓别林（穿着大衣，戴着护目镜）准备登上一架从伦敦克罗伊登飞往巴黎的因斯通航空公司维克斯-维米商业客机，准备前往美国。","the_new_excerpt":null,"locale":"zh"},{"title":"[1921年10月5日]英國喜劇演員查理-卓別林（穿着大衣，戴着護目鏡）準備登上一架從倫敦克羅伊登飛往巴黎的因斯通航空公司維克斯-維米商業客機，準備前往美國。","the_new_excerpt":null,"locale":"zh-Hant"}]}},{"id":"RedditPost-q1cwrs","excerpt":"","slug":"/reddit/r/100yearsago/comments/q1cwrs/october_4th_1921_amateur_stunt_pilot_madeline/","title":"[October 4th, 1921] Amateur stunt pilot Madeline Davis [left] attempts to become the first woman to travel from a moving car into a moving airplane via rope ladder. During her ascent, she loses grip on the rope ladder and plunges to her death.","date":"October 05, 2021","dateISO":"2021-10-05T01:12:44.000Z","datetime":"2021-10-05 01:12","tags":["100yearsago","reddit"],"image":null,"imageAlt":"Reddit Image","__typename":"SocialMediaPost","provider":"Reddit","thirdPartyId":"q1cwrs","url":"https://www.reddit.com/r/100yearsago/comments/q1cwrs/october_4th_1921_amateur_stunt_pilot_madeline/","originalUrl":"https://www.reddit.com/r/100yearsago/comments/q1cwrs/october_4th_1921_amateur_stunt_pilot_madeline/","imageRemote":"https://i.redd.it/elhphae9ihr71.jpg?width=1080&crop=smart&auto=webp&s=82578bdd4de3bf6a94101d3757e1cfc1cd4d6f15","video":null,"channel":"100yearsago","channelUrl":"https://www.reddit.com/r/100yearsago","author":"Missy_Elliott_Smith","authorUrl":"https://www.reddit.com/user/Missy_Elliott_Smith","authorImageRemote":null,"authorImage":null,"authorSlug":"Missy_Elliott_Smith","score":64,"views":null,"sharedCount":null,"likeCount":null,"sharedContent":null,"parent":{"localize":[{"title":"[1921年10月4日】 アマチュア・スタント・パイロットのマデリン・デイビス（左）が、女性として初めて、動いている車からロープのはしごで動いている飛行機に乗り込むことに挑戦。上昇中に縄梯子のグリップを失い、墜落死してしまう。","the_new_excerpt":null,"locale":"ja"},{"title":"[1921年10月4日]业余特技飞行员马德琳-戴维斯[左]试图成为第一位通过绳梯从移动的汽车进入移动的飞机的女性。在上升过程中，她失去了对绳梯的控制，并坠落至死。","the_new_excerpt":null,"locale":"zh"},{"title":"[1921年10月4日]業餘特技飛行員馬德琳-戴維斯[左]試圖成爲第一位通過繩梯從移動的汽車進入移動的飛機的女性。在上升過程中，她失去了對繩梯的控制，並墜落至死。","the_new_excerpt":null,"locale":"zh-Hant"}]}},{"id":"RedditPost-q135t6","excerpt":"","slug":"/reddit/r/100yearsago/comments/q135t6/october_4th_1921_what_the_motor_bicycle_has_to/","title":"[October 4th, 1921] \"What The Motor Bicycle Has To Put Up With.\"","date":"October 04, 2021","dateISO":"2021-10-04T16:59:41.000Z","datetime":"2021-10-04 16:59","tags":["100yearsago","reddit"],"image":null,"imageAlt":"Reddit Image","__typename":"SocialMediaPost","provider":"Reddit","thirdPartyId":"q135t6","url":"https://www.reddit.com/r/100yearsago/comments/q135t6/october_4th_1921_what_the_motor_bicycle_has_to/","originalUrl":"https://www.reddit.com/r/100yearsago/comments/q135t6/october_4th_1921_what_the_motor_bicycle_has_to/","imageRemote":"https://i.redd.it/lm1tjh9f0fr71.jpg?width=1080&crop=smart&auto=webp&s=f4783574e6a1da04d66f16d1de70a0bd04132fe7","video":null,"channel":"100yearsago","channelUrl":"https://www.reddit.com/r/100yearsago","author":"michaelnoir","authorUrl":"https://www.reddit.com/user/michaelnoir","authorImageRemote":null,"authorImage":null,"authorSlug":"michaelnoir","score":46,"views":null,"sharedCount":null,"likeCount":null,"sharedContent":null,"parent":{"localize":[{"title":"[1921年10月4日] \"モーター・バイシクルは何を我慢しなければならないか\"","the_new_excerpt":null,"locale":"ja"},{"title":"[1921年10月4日] \"电动自行车必须忍受的东西\"。","the_new_excerpt":null,"locale":"zh"},{"title":"[1921年10月4日] \"電動自行車必須忍受的東西\"。","the_new_excerpt":null,"locale":"zh-Hant"}]}},{"id":"RedditPost-q132zk","excerpt":"","slug":"/reddit/r/100yearsago/comments/q132zk/october_4th_1921_marriage_of_mr_gaston_vidal/","title":"[October 4th, 1921] Marriage of Mr. Gaston Vidal, under secretary of state, with Miss Yvonne Carlo, town hall of the 17th arrondissement, Paris.","date":"October 04, 2021","dateISO":"2021-10-04T13:29:20.000Z","datetime":"2021-10-04 13:29","tags":["100yearsago","reddit"],"image":null,"imageAlt":"Reddit Image","__typename":"SocialMediaPost","provider":"Reddit","thirdPartyId":"q132zk","url":"https://www.reddit.com/r/100yearsago/comments/q132zk/october_4th_1921_marriage_of_mr_gaston_vidal/","originalUrl":"https://www.reddit.com/r/100yearsago/comments/q132zk/october_4th_1921_marriage_of_mr_gaston_vidal/","imageRemote":"https://i.redd.it/8lh037unxer71.jpg?width=1080&crop=smart&auto=webp&s=46df2826d18bc99e916b72b943a4b92f6f751e88","video":null,"channel":"100yearsago","channelUrl":"https://www.reddit.com/r/100yearsago","author":"michaelnoir","authorUrl":"https://www.reddit.com/user/michaelnoir","authorImageRemote":null,"authorImage":null,"authorSlug":"michaelnoir","score":46,"views":null,"sharedCount":null,"likeCount":null,"sharedContent":null,"parent":{"localize":[{"title":"[1921年10月4日】 国務次官のガストン・ヴィダル氏とイボンヌ・カルロ嬢の結婚式がパリ17区の市庁舎で行われました。","the_new_excerpt":null,"locale":"ja"},{"title":"[1921年10月4日] 国务院副秘书长加斯顿-维达尔先生与伊冯娜-卡洛小姐在巴黎第17区市政厅结婚。","the_new_excerpt":null,"locale":"zh"},{"title":"[1921年10月4日] 國務院副祕書長加斯頓-維達爾先生與伊馮娜-卡洛小姐在巴黎第17區市政廳結婚。","the_new_excerpt":null,"locale":"zh-Hant"}]}},{"id":"RedditPost-q04ac1","excerpt":"","slug":"/reddit/r/100yearsago/comments/q04ac1/oct_2_1921_babe_ruth_hits_his_59th_and_last_home/","title":"[Oct. 2, 1921] Babe Ruth hits his 59th and last home run of the season to set the new record, as the Yankees win their final regular-season game over his old team the Red Sox. The old record was 54, set by Ruth in 1920.","date":"October 03, 2021","dateISO":"2021-10-03T06:14:18.000Z","datetime":"2021-10-03 06:14","tags":["100yearsago","reddit"],"image":null,"imageAlt":null,"__typename":"SocialMediaPost","provider":"Reddit","thirdPartyId":"q04ac1","url":"https://www.reddit.com/r/100yearsago/comments/q04ac1/oct_2_1921_babe_ruth_hits_his_59th_and_last_home/","originalUrl":"https://www.reddit.com/r/100yearsago/comments/q04ac1/oct_2_1921_babe_ruth_hits_his_59th_and_last_home/","imageRemote":null,"video":null,"channel":"100yearsago","channelUrl":"https://www.reddit.com/r/100yearsago","author":"knotso6","authorUrl":"https://www.reddit.com/user/knotso6","authorImageRemote":null,"authorImage":null,"authorSlug":"knotso6","score":42,"views":null,"sharedCount":null,"likeCount":null,"sharedContent":null,"parent":{"localize":[{"title":"[1921年10月2日】 ベーブ・ルースがシーズン59本目となる最後の本塁打を放ち、新記録を樹立しました。ヤンキースは彼の古巣であるレッドソックスとのレギュラーシーズン最終戦に勝利しました。従来の記録は1920年にルースが記録した54本でした。","the_new_excerpt":null,"locale":"ja"},{"title":"[1921年10月2日] 贝比-鲁斯击出了他本赛季的第59支也是最后一支本垒打，创造了新的记录，洋基队在最后一场常规赛中战胜了他的老东家红袜队。旧的记录是54支，由鲁斯在1920年创造。","the_new_excerpt":null,"locale":"zh"},{"title":"[1921年10月2日] 貝比-魯斯擊出了他本賽季的第59支也是最後一支本壘打，創造了新的記錄，洋基隊在最後一場常規賽中戰勝了他的老東家紅襪隊。舊的記錄是54支，由魯斯在1920年創造。","the_new_excerpt":null,"locale":"zh-Hant"}]}},{"id":"RedditPost-pzt163","excerpt":"","slug":"/reddit/r/100yearsago/comments/pzt163/october_2nd_1921_are_modern_women_less_bashful/","title":"[October 2nd, 1921] \"Are Modern Women Less Bashful Than Men?\"","date":"October 02, 2021","dateISO":"2021-10-02T13:40:16.000Z","datetime":"2021-10-02 13:40","tags":["100yearsago","reddit"],"image":null,"imageAlt":"Reddit Image","__typename":"SocialMediaPost","provider":"Reddit","thirdPartyId":"pzt163","url":"https://www.reddit.com/r/100yearsago/comments/pzt163/october_2nd_1921_are_modern_women_less_bashful/","originalUrl":"https://www.reddit.com/r/100yearsago/comments/pzt163/october_2nd_1921_are_modern_women_less_bashful/","imageRemote":"https://i.redd.it/cadhzxsyp0r71.jpg?width=1080&crop=smart&auto=webp&s=8eb154eac36f95cae577a36aa3be345f2029e648","video":null,"channel":"100yearsago","channelUrl":"https://www.reddit.com/r/100yearsago","author":"michaelnoir","authorUrl":"https://www.reddit.com/user/michaelnoir","authorImageRemote":null,"authorImage":null,"authorSlug":"michaelnoir","score":55,"views":null,"sharedCount":null,"likeCount":null,"sharedContent":null,"parent":{"localize":[{"title":"[1921年10月2日] \"現代の女性は男性よりも恥ずかしがり屋？\"","the_new_excerpt":null,"locale":"ja"},{"title":"[1921年10月2日]\"现代女性是否比男性更不腼腆？\"","the_new_excerpt":null,"locale":"zh"},{"title":"[1921年10月2日]\"現代女性是否比男性更不靦腆？\"","the_new_excerpt":null,"locale":"zh-Hant"}]}},{"id":"RedditPost-pznn5a","excerpt":"","slug":"/reddit/r/100yearsago/comments/pznn5a/oct_1_1921_stubby_war_hero_dog_of_the_armys_102nd/","title":"[Oct. 1, 1921] Stubby, war hero dog of the Army's 102nd Regiment, makes his debut as mascot of Georgetown University's football team. The mutt owned by James Conroy, a Georgetown Law student, remains the symbol of Hoyas sports teams.","date":"October 02, 2021","dateISO":"2021-10-02T07:53:47.000Z","datetime":"2021-10-02 07:53","tags":["100yearsago","reddit"],"image":null,"imageAlt":null,"__typename":"SocialMediaPost","provider":"Reddit","thirdPartyId":"pznn5a","url":"https://www.reddit.com/r/100yearsago/comments/pznn5a/oct_1_1921_stubby_war_hero_dog_of_the_armys_102nd/","originalUrl":"https://www.reddit.com/r/100yearsago/comments/pznn5a/oct_1_1921_stubby_war_hero_dog_of_the_armys_102nd/","imageRemote":null,"video":null,"channel":"100yearsago","channelUrl":"https://www.reddit.com/r/100yearsago","author":"knotso6","authorUrl":"https://www.reddit.com/user/knotso6","authorImageRemote":null,"authorImage":null,"authorSlug":"knotso6","score":42,"views":null,"sharedCount":null,"likeCount":null,"sharedContent":null,"parent":{"localize":[{"title":"[1921年10月1日】陸軍第102連隊の戦争英雄犬スタビーが、ジョージタウン大学のフットボールチームのマスコットとしてデビューしました。ジョージタウン大学法学部の学生、ジェームズ・コンロイが飼っていたこの雑種犬は、現在でもホイヤーズのスポーツチームのシンボルとなっている。","the_new_excerpt":null,"locale":"ja"},{"title":"[1921年10月1日] 陆军第102团的战争英雄犬斯塔比作为乔治敦大学足球队的吉祥物首次亮相。这只由乔治敦法学院学生詹姆斯-康罗伊（James Conroy）拥有的杂种狗仍然是霍耶斯大学运动队的象征。","the_new_excerpt":null,"locale":"zh"},{"title":"[1921年10月1日] 陸軍第102團的戰爭英雄犬斯塔比作爲喬治敦大學足球隊的吉祥物首次亮相。這隻由喬治敦法學院學生詹姆斯-康羅伊（James Conroy）擁有的雜種狗仍然是霍耶斯大學運動隊的象徵。","the_new_excerpt":null,"locale":"zh-Hant"}]}},{"id":"RedditPost-pz5s3e","excerpt":"","slug":"/reddit/r/100yearsago/comments/pz5s3e/october_1_1921_president_harding_marine/","title":"[October 1, 1921] President Harding, Marine Headquarters, 1 October 1921","date":"October 01, 2021","dateISO":"2021-10-01T14:18:47.000Z","datetime":"2021-10-01 14:18","tags":["100yearsago","reddit"],"image":null,"imageAlt":"Reddit Image","__typename":"SocialMediaPost","provider":"Reddit","thirdPartyId":"pz5s3e","url":"https://www.reddit.com/r/100yearsago/comments/pz5s3e/october_1_1921_president_harding_marine/","originalUrl":"https://www.reddit.com/r/100yearsago/comments/pz5s3e/october_1_1921_president_harding_marine/","imageRemote":"https://external-preview.redd.it/-rPa5Uqju8N3oSC1C_36v-2m1Jd5CNl9i8OKLJUEvkQ.jpg?width=960&crop=smart&auto=webp&s=99f98b4fe71b47693c090ea5bbb4ee45e25a1377","video":null,"channel":"100yearsago","channelUrl":"https://www.reddit.com/r/100yearsago","author":"DyersvilleStLambert","authorUrl":"https://www.reddit.com/user/DyersvilleStLambert","authorImageRemote":null,"authorImage":null,"authorSlug":"DyersvilleStLambert","score":41,"views":null,"sharedCount":null,"likeCount":null,"sharedContent":null,"parent":{"localize":[{"title":"[1921年10月1日】ハーディング大統領、海兵隊本部、1921年10月1日","the_new_excerpt":null,"locale":"ja"},{"title":"[1921年10月1日]哈定总统，海军陆战队总部，1921年10月1日","the_new_excerpt":null,"locale":"zh"},{"title":"[1921年10月1日]哈定總統，海軍陸戰隊總部，1921年10月1日","the_new_excerpt":null,"locale":"zh-Hant"}]}},{"id":"RedditPost-pz5ogw","excerpt":"","slug":"/reddit/r/100yearsago/comments/pz5ogw/october_1_1921_photograph_shows_six_young_men_and/","title":"[October 1, 1921] Photograph shows six young men and women wearing radio headsets, seated around a table, participating in a \"jamming\" contest which requires the transmission of messages with the least number of errors. 10/1/21","date":"October 01, 2021","dateISO":"2021-10-01T13:30:28.000Z","datetime":"2021-10-01 13:30","tags":["100yearsago","reddit"],"image":null,"imageAlt":"Reddit Image","__typename":"SocialMediaPost","provider":"Reddit","thirdPartyId":"pz5ogw","url":"https://www.reddit.com/r/100yearsago/comments/pz5ogw/october_1_1921_photograph_shows_six_young_men_and/","originalUrl":"https://www.reddit.com/r/100yearsago/comments/pz5ogw/october_1_1921_photograph_shows_six_young_men_and/","imageRemote":"https://external-preview.redd.it/Ym53nuazOVN_upeFPG5GdeXqBOwGD7ETErgzm2Ws0Ss.jpg?width=960&crop=smart&auto=webp&s=63dea599ceacdf9f5b5a3cc795cac0ff2a3672cd","video":null,"channel":"100yearsago","channelUrl":"https://www.reddit.com/r/100yearsago","author":"DyersvilleStLambert","authorUrl":"https://www.reddit.com/user/DyersvilleStLambert","authorImageRemote":null,"authorImage":null,"authorSlug":"DyersvilleStLambert","score":45,"views":null,"sharedCount":null,"likeCount":null,"sharedContent":null,"parent":{"localize":[{"title":"[1921年10月1日】無線機のヘッドセットをつけた若い男女6人がテーブルを囲み、誤りの少ないメッセージの送信を競う「ジャミング」に参加している様子を撮影。10/1/21","the_new_excerpt":null,"locale":"ja"},{"title":"[1921年10月1日]照片显示，六名戴着无线电耳机的青年男女围坐在一张桌子旁，参加 \"干扰 \"比赛，要求以最少的错误传输信息。10/1/21","the_new_excerpt":null,"locale":"zh"},{"title":"[1921年10月1日]照片顯示，六名戴着無線電耳機的青年男女圍坐在一張桌子旁，參加 \"干擾 \"比賽，要求以最少的錯誤傳輸信息。10/1/21","the_new_excerpt":null,"locale":"zh-Hant"}]}},{"id":"RedditPost-pyhvwm","excerpt":"","slug":"/reddit/r/100yearsago/comments/pyhvwm/september_30_1921_uss_colorado_bb_45_overhead/","title":"[September 30, 1921] USS Colorado (BB 45), overhead view showing stern, at New York Shipbuilding Corporation, Camden, New Jersey, September 30, 1921. [2250 x 2986]","date":"October 01, 2021","dateISO":"2021-10-01T02:46:07.000Z","datetime":"2021-10-01 02:46","tags":["100yearsago","reddit"],"image":null,"imageAlt":"Reddit Image","__typename":"SocialMediaPost","provider":"Reddit","thirdPartyId":"pyhvwm","url":"https://www.reddit.com/r/100yearsago/comments/pyhvwm/september_30_1921_uss_colorado_bb_45_overhead/","originalUrl":"https://www.reddit.com/r/100yearsago/comments/pyhvwm/september_30_1921_uss_colorado_bb_45_overhead/","imageRemote":"https://external-preview.redd.it/i3Zo0oUbNO8Xf2AszrRNwzFdxX2rwiIVKFDb9fHcosM.jpg?width=1080&crop=smart&auto=webp&s=30e11c93733f2bf35f2e02e57c8a2ed65babc7ab","video":null,"channel":"100yearsago","channelUrl":"https://www.reddit.com/r/100yearsago","author":"DyersvilleStLambert","authorUrl":"https://www.reddit.com/user/DyersvilleStLambert","authorImageRemote":null,"authorImage":null,"authorSlug":"DyersvilleStLambert","score":41,"views":null,"sharedCount":null,"likeCount":null,"sharedContent":null,"parent":{"localize":[{"title":"[1921年9月30日] USSコロラド(BB45)、船尾を示す俯瞰図、ニュージャージー州カムデンのニューヨーク造船株式会社にて、1921年9月30日。[2250 x 2986]","the_new_excerpt":null,"locale":"ja"},{"title":"[1921年9月30日]科罗拉多号（BB45），显示船尾的俯视图，1921年9月30日在新泽西州卡姆登的纽约造船公司。[2250 x 2986]","the_new_excerpt":null,"locale":"zh"},{"title":"[1921年9月30日]科羅拉多號（BB45），顯示船尾的俯視圖，1921年9月30日在新澤西州卡姆登的紐約造船公司。[2250 x 2986]","the_new_excerpt":null,"locale":"zh-Hant"}]}}]}},"pageContext":{"basePath":"/","pageType":"home","tagsFilter":{"date":{"gt":"2000-12-25T10:54:58.000Z"}},"filter":{"date":{"gt":"2000-12-25T10:54:58.000Z"}},"limit":50,"skip":200,"totalPages":5,"total":211,"currentPage":5,"maxWidth":1024,"maxHeight":512,"siteMetadata":null,"locale":"zh-Hant","hrefLang":"zh-Hant","originalPath":"/page/5","dateFormat":"YYYY-MM-DD"}},
    "staticQueryHashes": ["1239077767","2744905544","3025052997","3280999885"]}